/Users/Eva/Desktop/Informatik/Master/Masterarbeit/masterarbeit_java/webInterface/src/main/java/webInterface/webInterface/Map.java
/Users/Eva/Desktop/Informatik/Master/Masterarbeit/masterarbeit_java/webInterface/src/main/java/webInterface/webInterface/Bacterium.java
/Users/Eva/Desktop/Informatik/Master/Masterarbeit/masterarbeit_java/webInterface/src/main/java/webInterface/webInterface/EchoEndpoint.java
/Users/Eva/Desktop/Informatik/Master/Masterarbeit/masterarbeit_java/webInterface/src/main/java/webInterface/webInterface/LibLINEAR.java
/Users/Eva/Desktop/Informatik/Master/Masterarbeit/masterarbeit_java/webInterface/src/main/java/webInterface/webInterface/Processing.java
/Users/Eva/Desktop/Informatik/Master/Masterarbeit/masterarbeit_java/webInterface/src/main/java/webInterface/webInterface/MapBacterium.java
/Users/Eva/Desktop/Informatik/Master/Masterarbeit/masterarbeit_java/webInterface/src/main/java/webInterface/webInterface/TableUtils.java
/Users/Eva/Desktop/Informatik/Master/Masterarbeit/masterarbeit_java/webInterface/src/main/java/webInterface/webInterface/ProteinInfo.java
