Bacillus halodurans;Bacillus halodurans;Bacillus halodurans;Bacillus halodurans;Bacillus halodurans;Bacillus stearothermophilus;Bacillus stearothermophilus;Bacillus stearothermophilus;Bacillus stearothermophilus;Bacillus stearothermophilus;Bacillus subtilis;Bacillus subtilis;Bacillus subtilis;Bacillus subtilis;Bacillus subtilis;Escherichia coli;Escherichia coli;Escherichia coli;Escherichia coli;Escherichia coli;Haemophilus influenzae;Haemophilus influenzae;Haemophilus influenzae;Haemophilus influenzae;Haemophilus influenzae;Micrococcus luteus (Micrococcus lysodeikticus);Micrococcus luteus (Micrococcus lysodeikticus);Micrococcus luteus (Micrococcus lysodeikticus);Micrococcus luteus (Micrococcus lysodeikticus);Micrococcus luteus (Micrococcus lysodeikticus);Pseudomonas aeruginosa;Pseudomonas aeruginosa;Pseudomonas aeruginosa;Pseudomonas aeruginosa;Pseudomonas aeruginosa;Salmonella typhimurium;Salmonella typhimurium;Salmonella typhimurium;Salmonella typhimurium;Salmonella typhimurium
4278.39;4278.39;4140.89;4278.99;4106.99;4346.89;4361.89;4056.89;4057.89;4361.49;4272.69;4306.99;4304.89;4272.29;4305.69;4184.79;4185.99;4185.59;4185.59;4186.39;4167.09;4164.79;4164.19;4166.99;4167.59;4048.19;4147.69;4048.39;4049.09;4048.49;4177.89;4177.19;4177.99;4177.79;4177.49;4105.49;4186.59;4185.99;4185.99;4338.61
4537.69;4475.19;4278.99;4536.39;4278.69;4361.89;4382.59;4361.29;4327.59;4382.79;4306.89;4344.49;4343.69;4306.49;4344.39;4334.69;4365.39;4330.59;4333.79;4350.79;4298.09;4295.89;4295.89;4265.59;4256.99;4146.79;4161.09;4140.19;4159.29;4146.99;4262.49;4195.59;4195.19;4262.29;4378.79;4140.89;4365.49;4365.49;4345.99;4366.21
4749.39;4536.99;4476.39;4749.39;4475.99;4419.89;4400.29;4400.89;4361.99;4399.19;4344.99;4420.59;4419.19;4344.59;4367.59;4364.19;4439.09;4349.39;4349.39;4365.79;4427.89;4418.39;4317.79;4297.99;4265.59;4158.99;4179.49;4146.29;4178.29;4159.29;4377.99;4262.29;4262.49;4380.19;4392.59;4173.39;4451.89;4450.59;4365.49;5375.71
4778.89;4748.09;4537.69;4821.69;4537.29;4701.49;4420.49;4419.89;4400.29;4419.39;4420.99;4604.89;4603.59;4420.69;4382.69;4437.89;4449.29;4365.09;4364.49;4439.49;4436.09;4425.29;4425.29;4318.49;4298.59;4164.49;4315.59;4159.19;4191.19;4177.09;4391.89;4378.39;4358.49;4392.79;4408.39;4177.69;4461.39;4461.39;4450.59;6263.71
4821.69;4778.29;4749.39;5071.59;4748.89;4839.89;4438.79;4700.19;4420.49;4438.39;4604.69;4735.99;4734.19;4604.99;4420.49;4447.99;4498.19;4404.69;4438.79;4450.29;4505.39;4503.49;4503.49;4335.39;4334.79;4178.09;4334.39;4178.19;4314.49;4185.09;4408.89;4392.79;4380.49;4408.59;4435.49;4184.39;4498.29;4497.59;4460.09;6322.61
5071.59;4821.69;4822.39;5146.39;4821.89;4852.49;4700.69;4838.59;4700.49;4700.39;4735.09;5003.69;5001.99;4734.79;4605.59;4469.49;4532.59;4429.29;4447.09;4469.29;4712.29;4710.09;4710.09;4340.99;4401.29;4332.99;4889.19;4184.39;4333.89;4313.89;4418.39;4407.89;4393.09;4419.89;4457.09;4364.59;4603.99;4620.79;4498.29;7266.41
5146.99;5070.99;5072.29;5168.19;5071.79;4858.39;4839.69;4852.49;4857.89;4838.19;4943.69;5224.29;5224.89;4943.49;4734.09;4478.39;4597.39;4438.79;4497.19;4498.59;4754.79;4753.29;4753.29;4360.99;4427.79;4888.39;4911.09;4314.69;4873.99;4332.59;4435.39;4417.39;4409.39;4435.69;4467.89;4449.79;4621.39;4639.49;4620.79;9521.31
5227.79;5102.09;5133.39;5183.19;5131.89;4881.59;4852.29;4857.09;4881.69;4852.09;5003.29;5253.89;5253.09;5002.39;5252.79;4496.89;4614.09;4448.99;4532.39;4533.69;4830.39;4828.99;5031.99;4381.09;4505.79;4909.69;5179.39;4333.09;4888.59;4887.89;4468.39;4435.69;4435.99;4467.99;4543.79;4459.89;4763.29;4763.29;4638.19;
5364.69;5146.39;5146.99;5228.49;5146.49;5063.79;4858.19;4872.29;5065.69;4879.89;5224.59;5291.09;5291.79;5225.09;5290.09;4532.59;4769.59;4497.19;4596.49;4597.19;5033.09;5031.99;5041.49;4406.29;4528.09;5108.09;5481.59;4874.99;4909.89;4909.19;4543.69;4456.59;4468.89;4543.89;4893.49;4497.39;5035.19;4813.89;4762.59;
5608.89;5168.19;5227.79;5364.69;5227.19;5233.59;4880.09;4881.59;5233.89;5232.59;5236.29;5571.69;5571.89;5253.99;5312.19;4596.09;4777.39;4532.99;4613.29;4614.59;5064.79;5040.09;5063.09;4427.79;4538.39;5180.39;5922.29;4888.29;5179.09;5178.39;4977.49;4467.99;4544.09;4894.09;4976.89;4619.29;5144.29;5035.89;4791.49;
5913.29;5227.79;5364.69;5608.89;5234.79;5280.39;5064.19;5063.79;5282.79;5280.79;5253.49;5900.29;5900.09;5291.19;5571.49;4612.89;4857.19;4596.49;4768.79;4769.99;5084.39;5063.09;5097.69;4505.79;4712.09;5480.79;6237.59;4909.59;6239.19;5480.89;4992.29;4543.89;4894.29;4977.49;4992.29;4761.89;5370.89;5144.29;4798.09;
6450.29;5235.39;5609.69;5913.29;5364.79;5324.69;5233.49;5234.19;5323.49;5324.39;5291.39;6506.69;6505.39;5571.79;5900.19;4768.29;5069.19;4613.89;4776.69;4777.89;5098.69;5083.39;5115.39;4527.49;4755.19;6238.39;6286.39;5178.69;6287.99;6237.69;5058.29;4893.49;4977.69;4992.89;5058.29;5033.79;5381.99;5370.19;4813.19;
6835.99;5363.99;5913.29;6251.19;5608.99;5609.79;5280.69;5279.69;5359.59;5361.89;5571.19;6596.59;6596.99;5900.39;6598.29;4776.09;5098.29;4768.79;4856.39;4857.59;5564.59;5097.69;5564.29;4533.29;4830.09;6258.69;6327.09;5481.79;6327.99;6286.49;5113.19;4976.79;4992.39;5058.89;5079.99;5142.99;5607.99;5381.29;4819.79;
7809.59;5608.89;6251.19;6451.09;5913.29;5907.49;5324.29;5323.99;5387.39;5609.69;5900.39;6636.79;6637.89;6506.69;6637.69;4856.49;5149.29;4777.29;5069.19;5070.39;6260.89;5563.59;6261.79;4712.09;5033.39;6266.99;7379.39;6238.39;7381.39;6327.99;5166.99;4991.59;5058.39;5080.49;5112.49;5369.59;6256.79;6255.29;5035.19;
9643.49;5912.59;6451.09;6836.79;6233.89;6513.69;5361.09;5352.39;5608.99;5907.39;6504.99;6676.99;6677.49;6596.59;6678.79;5069.19;5347.29;4857.09;5096.29;5097.49;6431.89;6261.79;6432.99;4734.89;5065.09;6286.59;;6264.69;;;5210.09;5058.19;5081.39;5113.39;5140.39;5380.69;6316.99;6316.29;5144.99;
;6251.89;6836.79;6939.29;6450.29;6653.19;5609.99;5361.49;5867.09;5944.69;6564.09;6697.99;6698.49;6637.49;6695.09;5096.29;5381.39;5069.19;5150.09;5150.49;6529.69;6432.29;6530.29;4745.99;5098.99;6327.29;;6286.49;;;5475.29;5080.49;5113.19;5166.19;5166.99;5607.49;6385.09;9518.99;5271.79;
;6450.29;6938.49;7810.39;7809.29;6729.39;5906.89;5609.09;5873.59;6512.99;6596.49;7114.59;6738.99;6676.99;7427.69;5149.29;6254.09;5096.99;5340.59;5344.39;7177.39;6531.09;7179.79;4754.49;5384.89;;;6327.19;;;5716.99;5113.09;5139.69;5209.89;5209.49;6113.69;7262.69;;5370.19;
;6835.99;7809.59;9643.49;9641.09;6795.79;6512.79;5907.49;5907.79;6652.59;6633.49;7425.49;6752.19;6697.19;;5338.99;6315.09;5150.69;5380.99;5381.29;7305.89;7180.59;7308.49;4830.09;5563.99;;;6429.69;;;5735.69;5139.59;5168.99;5475.69;5475.39;6255.69;9519.89;;5381.29;
;6938.49;9640.69;;;6924.79;6651.49;6512.99;6511.79;6689.79;6677.69;7712.09;7115.39;7112.89;;5346.59;6411.29;5344.79;5404.69;5410.59;;7307.69;7833.99;5033.39;6261.59;;;7381.09;;;5883.39;5165.49;5210.09;5717.99;5716.99;6315.99;;;5608.79;
;7809.59;;;;7148.69;6690.29;6652.39;6650.29;6727.99;6697.09;9468.09;7425.79;7424.59;;5379.99;6807.19;5380.99;6254.19;5602.19;;;;5064.49;6385.09;;;;;;5955.79;5209.29;5236.79;5734.49;5735.69;6384.89;;;6255.99;
;9641.69;;;;7558.39;6726.79;6729.39;6691.39;6767.79;7112.69;;7715.19;7712.79;;6253.39;7156.99;5409.89;6315.19;6254.89;;;;5085.39;6431.79;;;;;;6044.79;5230.49;5474.39;5955.19;5955.79;7261.09;;;6316.29;
;;;;;7796.49;6794.79;6794.99;6728.69;6776.39;7425.09;;8840.29;8834.89;;6314.29;7272.29;5417.29;6387.79;6315.09;;;;5098.99;6528.89;;;;;;6266.19;5474.99;5719.49;6044.89;6044.79;9519.79;;;6384.39;
;;;;;9709.69;6925.29;6923.19;6794.29;6795.99;7711.59;;9472.19;9468.79;;6409.69;9061.89;6254.19;6411.39;6387.69;;;;5135.69;7177.89;;;;;;6346.19;5717.99;5735.29;6265.39;6263.89;;;;7262.69;
;;;;;;7149.19;7147.89;6923.89;6924.99;8835.99;;10448.79;10444.19;;6807.19;9550.89;6315.19;6808.29;6410.49;;;;5383.49;7306.29;;;;;;6450.99;5734.49;5955.89;6346.09;6346.19;;;;9517.99;
;;;;;;7796.69;7796.49;7145.89;7149.79;9462.39;;;;;7156.19;9711.09;6387.09;7156.79;6807.99;;;;5563.99;7832.39;;;;;;6674.19;5954.39;6044.19;6673.89;6566.79;;;;;
;;;;;;9711.09;9712.49;7557.59;7557.19;10438.29;;;;;7270.69;;6409.89;7272.89;7157.09;;;;6260.89;9504.59;;;;;;7201.19;6044.19;6266.09;7200.59;6674.19;;;;;
;;;;;;12360.69;;7795.29;7796.09;;;;;;7870.19;;6808.29;7870.39;7273.29;;;;6384.69;;;;;;;7233.49;6266.09;6345.99;7231.19;7201.09;;;;;
;;;;;;;;9710.69;9711.29;;;;;;9064.59;;6842.09;9060.99;7867.99;;;;6430.99;;;;;;;7587.59;6346.09;6566.49;7586.69;7232.59;;;;;
;;;;;;;;;;;;;;;9545.29;;7157.59;9548.39;9061.39;;;;6468.39;;;;;;;7918.79;6567.29;6628.19;7917.79;7587.49;;;;;
;;;;;;;;;;;;;;;9712.09;;7274.59;9713.39;9533.79;;;;6528.89;;;;;;;8871.59;6632.89;6673.89;8871.69;7919.49;;;;;
;;;;;;;;;;;;;;;;;7870.39;;9546.79;;;;6567.29;;;;;;;9085.89;6673.89;7200.39;9083.99;8871.39;;;;;
;;;;;;;;;;;;;;;;;9064.59;;9712.59;;;;7177.09;;;;;;;;7200.59;7231.89;;8932.39;;;;;
;;;;;;;;;;;;;;;;;9548.39;;;;;;7305.49;;;;;;;;7230.39;7586.49;;12360.69;;;;;
;;;;;;;;;;;;;;;;;9712.49;;;;;;7831.59;;;;;;;;7586.69;7917.49;;;;;;;
;;;;;;;;;;;;;;;;;;;;;;;9421.39;;;;;;;;7920.29;8870.39;;;;;;;
;;;;;;;;;;;;;;;;;;;;;;;9503.59;;;;;;;;8869.89;9083.59;;;;;;;
;;;;;;;;;;;;;;;;;;;;;;;;;;;;;;;9083.99;;;;;;;;
