,L20,L24,L28,L29,L31,L32,L33,L36,S10,S15,S16,S17,S20
Burkholderia sp. WSM2230,13527.1,10692.7,8566.9,7334.5,10020.2,6491.6,6292.6,4410.4,11813.6,10110.8,9328.8,10260.9,9701.3
Burkholderia sp. JPY347,13483,10839.8,8631,7333.5,9896.2,6491.6,6225.5,4410.4,11813.6,10069.7,9344.9,10278.8,9998.7
Burkholderia sp. JPY251,13527.1,10755.7,8566.9,7335.5,9909.2,6505.6,6292.6,4410.4,11813.6,10186.8,9317.8,10260.9,9697.2
Burkholderia sp. UYPR1.413,13513.1,10629.5,8630,7334.5,9964.3,6518.6,6225.5,4410.4,11813.6,10037.7,9316.8,10306.9,9640.2
Cupriavidus sp. UYPR2.512,13381.8,10644.6,8576,7216.4,9847.2,6525.5,6299.5,4378.3,11677.5,10141.8,9160.5,10477.9,9286.8
Cupriavidus taiwanensis LMG 19424,13381.8,10644.6,8576,7184.3,9820.1,6525.5,6299.5,4378.3,11677.5,10141.8,9117.4,10477.9,9270.8
Cupriavidus taiwanensis STM6070,13381.8,10644.6,8576,7184.3,9820.1,6525.5,6299.5,4378.3,11677.5,10141.8,9231.5,10477.9,9270.8
Rhizobium etli CFN 42,14930.4,11209.1,10729.5,7526.7,8084.1,6774.9,6213.5,4990.9,11570.3,10040.5,13395.3,8957.5,9686.2
Rhizobium phaseoli CIAT 652,14989.4,11209.1,10828.6,7512.7,8084.1,6774.9,6213.5,4990.9,11570.3,10040.5,13466.4,8956.5,9660.1
Rhizobium leguminosarum bv. phaseoli 4292,14950.4,11209.1,10701.4,7532.7,8098.2,6774.9,6199.4,4974.9,11570.3,10071.6,13523.5,8972.5,9702.2
Rhizobium leguminosarum bv. phaseoli FA23,14950.4,11209.1,10715.5,7532.7,8098.2,6774.9,6199.4,4993,11570.3,10071.6,13576.5,8972.5,9718.2
Rhizobium leguminosarum bv. trifolii TA1,14950.4,11209.1,10715.5,7546.7,8098.2,6774.9,6199.4,4974.9,11570.3,10071.6,13546.5,8972.5,9702.2
Rhizobium leguminosarum bv. trifolii WSM2297,14874.3,11209.1,10842.7,7532.7,8084.1,6774.9,6199.4,4990.9,11570.3,10057.5,13509.4,8972.5,9672.2
Rhizobium leguminosarum bv. trifolii CC283b,14950.4,11209.1,10701.4,7532.7,8098.2,6774.9,6199.4,4974.9,11570.3,10071.6,13523.5,8972.5,9702.2
Rhizobium leguminosarum bv. trifolii CC278f,14977.4,11209.1,10742.5,7546.7,8098.2,6774.9,6199.4,4974.9,11570.3,10071.6,13546.5,8972.5,9702.2
Rhizobium leguminosarum bv. trifolii WSM597,14961.4,11185.1,10815.6,7532.7,8084.1,6774.9,6213.5,4974.9,11570.3,10057.5,13495.4,8972.5,9672.2
Rhizobium leguminosarum bv. trifolii WSM2304,14961.4,11185.1,10815.6,7532.7,8084.1,6774.9,6213.5,4974.9,11570.3,10057.5,13495.4,8972.5,9702.2
Rhizobium leguminosarum bv. trifolii WSM2012,14904.3,11209.1,10828.6,7532.7,8084.1,6774.9,6199.4,4974.9,11570.3,10057.5,13553.4,8972.5,9672.2
Rhizobium leguminosarum bv. trifolii WSM1325,14980.4,11209.1,10715.5,7546.7,8098.2,6774.9,6199.4,4993,11570.3,10071.6,13576.5,8972.5,9702.2
Rhizobium leguminosarum bv. trifolii SRDI565,14964.4,11209.1,10715.5,7546.7,8098.2,6774.9,6199.4,4974.9,11570.3,10071.6,13546.5,8972.5,9702.2
Rhizobium leguminosarum bv. trifolii SRDI943,14980.4,11209.1,10715.5,7546.7,8098.2,6774.9,6199.4,4993,11570.3,10071.6,13546.5,8972.5,9702.2
Rhizobium leguminosarum bv. trifolii WSM1689,14978.4,11209.1,10715.5,7532.7,8098.2,6774.9,6199.4,4993,11570.3,10071.6,13576.5,8972.5,9718.2
Rhizobium leguminosarum bv. trifolii CB782,14904.3,11209.1,10828.6,7532.7,8084.1,6774.9,6199.4,4974.9,11570.3,10029.5,13553.4,8972.5,9672.2
Rhizobium leguminosarum bv. viciae 128C53,14950.4,11209.1,10701.4,7532.7,8098.2,6774.9,6199.4,4974.9,11570.3,10071.6,13523.5,8972.5,9702.2
Rhizobium leguminosarum bv. viciae 3841,14950.4,11209.1,10715.5,7546.7,8098.2,6774.9,6199.4,4974.9,11570.3,10071.6,13546.5,8972.5,9718.2
Rhizobium leguminosarum bv. viciae GB30,14950.4,11209.1,10715.5,7546.7,8098.2,6774.9,6199.4,4974.9,11570.3,10071.6,13546.5,8972.5,9702.2
Rhizobium leguminosarum bv. viciae Ps8,14950.4,11209.1,10715.5,7546.7,8098.2,6774.9,6199.4,4974.9,11570.3,10071.6,13520.5,8972.5,9702.2
Rhizobium leguminosarum bv. viciae UPM1131,14918.3,11209.1,10772.5,7546.7,8098.2,6774.9,6227.5,4993,11570.3,10071.6,13590.5,8972.5,9718.2
Rhizobium leguminosarum bv. viciae UPM1137,14950.4,11209.1,10701.4,7532.7,8098.2,6774.9,6199.4,4974.9,11570.3,10071.6,13523.5,8972.5,9702.2
Rhizobium leguminosarum bv. viciae TOM,14918.3,11209.1,10800.5,7546.7,8098.2,6774.9,6199.4,4993,11570.3,10071.6,13546.5,8972.5,9718.2
Rhizobium leguminosarum bv. viciae Vc2,14950.4,11209.1,10745.5,7532.7,8098.2,6774.9,6199.4,4974.9,11570.3,10071.6,13546.5,8972.5,9702.2
Rhizobium leguminosarum bv. viciae 248,14918.3,11209.1,10728.5,7532.7,8098.2,6774.9,6199.4,4993,11570.3,10071.6,13548.5,8972.5,9718.2
Rhizobium leguminosarum bv. viciae VF39,14950.4,11209.1,10715.5,7532.7,8098.2,6774.9,6199.4,4974.9,11570.3,10071.6,13546.5,8972.5,9718.2
Rhizobium leguminosarum bv. viciae WSM1455,14950.4,11209.1,10715.5,7532.7,8098.2,6774.9,6199.4,4993,11570.3,10071.6,13546.5,8972.5,9718.2
Rhizobium leguminosarum bv. viciae WSM1481,14950.4,11209.1,10715.5,7546.7,8098.2,6774.9,6199.4,4993,11570.3,10071.6,13475.4,8972.5,9718.2
Rhizobium leguminosarum bv. viciae Vh3,14950.4,11209.1,10715.5,7532.7,8098.2,6774.9,6199.4,4974.9,11570.3,10071.6,13546.5,8972.5,9702.2
Rhizobium sp. OR 191,14961.4,11154,10704.5,7498.6,8112.1,6774.9,6213.5,4974.9,11570.3,10031.6,13399.4,8972.5,9656.2
