
Cinzia Benagli et al. “A rapid MALDI-TOF MS identification database at genospecies levelfor clinical and environmental Aeromonas strains”. In: PLoS One 7.10 (2012), e48441.

Aeromonas hydrophila

3332
3871
4169
4256
4318
4445
4698
5003
5049
5706
6022
6304
7208
7347
7477
7746
8637
8913
9183
9398
10008